…
## 03 - Mean and median number of steps taken each day not including activity = 0 and NA


```r
g <- group_by(repDataActClean, date)
g2 <- filter(g, steps > 0)
g2 <- summarize(g2, Mean=mean(steps), Median=median(steps))
print(g2)
```

```
## # A tibble: 53 x 3
##    date        Mean Median
##    <date>     <dbl>  <dbl>
##  1 2012-10-02  63     63  
##  2 2012-10-03 140.    61  
##  3 2012-10-04 121.    56.5
##  4 2012-10-05 155.    66  
##  5 2012-10-06 145.    67  
##  6 2012-10-07 102.    52.5
##  7 2012-10-09 135.    48  
##  8 2012-10-10  95.2   56.5
##  9 2012-10-11 137.    35  
## 10 2012-10-12 157.    46  
## # ... with 43 more rows
```
…
```r
g <- group_by(repDataActImputed, date)
g2 <- filter(g, steps > 0)
g2 <- summarize(g2, Mean=mean(steps), Median=median(steps))
print(g2)
```

```
## # A tibble: 61 x 3
##    date        Mean Median
##    <date>     <dbl>  <dbl>
##  1 2012-10-01  37.4   37.4
##  2 2012-10-02  63     63  
##  3 2012-10-03 140.    61  
##  4 2012-10-04 121.    56.5
##  5 2012-10-05 155.    66  
##  6 2012-10-06 145.    67  
##  7 2012-10-07 102.    52.5
##  8 2012-10-08  37.4   37.4
##  9 2012-10-09 135.    48  
## 10 2012-10-10  95.2   56.5
## # ... with 51 more rows
```
…
